{
    "files/MonitoringCollector": {
        "wxs_id": "6db933b6-f0e9-4b1b-b84d-788352f57cc8"
    },
    "files/MonitoringClientInst": {
        "wxs_id": "7181fe45-1a14-49f5-b26b-f7ee2b2764f2"
    },
    "files/MonitoringIcingaPsFramework": {
        "wxs_id": "a684c149-e2df-41b3-873e-3b8a5e840a78"
    },
    "files/.gitmodules": {
        "wxs_id": "4ba49ca5-b3eb-4cd0-a02f-5c1ec7e8cd97"
    },
    "files/LICENSE": {
        "wxs_id": "c898df70-ef95-453c-b8ac-8d3dc639312c"
    },
    "files/.git": {
        "wxs_id": "eff8e3af-0fcb-47b9-ad9a-3d2e6485f76f"
    },
    "files/README.md": {
        "wxs_id": "e368c193-ca78-4f0f-89c0-928af252e4cf"
    },
    "files/MonitoringCollector/Modules": {
        "wxs_id": "f9bea214-4e89-4e90-af5e-c0d2ebd84676"
    },
    "files/MonitoringCollector/Bin": {
        "wxs_id": "7e24691d-d7f5-4df9-9d04-57cf212d9342"
    },
    "files/MonitoringCollector/Scripts": {
        "wxs_id": "097596a0-c7ec-4796-8168-d14212344194"
    },
    "files/MonitoringCollector/Modules/MonitoringCollectorWlanSync": {
        "wxs_id": "4984f67a-2370-42e9-8f6d-8275442e06e4"
    },
    "files/MonitoringCollector/Modules/MonitoringCollectorWlanSync/MonitoringCollectorWlanSync.psm1": {
        "wxs_id": "ddf7edac-cb5b-47d2-97b0-5738d2d63a11"
    },
    "files/MonitoringCollector/Bin/cpuz": {
        "wxs_id": "67ef18bc-bd77-48d7-a5f5-4d8832796edd"
    },
    "files/MonitoringCollector/Bin/cpuz/cpuz.ini": {
        "wxs_id": "040ffb05-945e-4a6a-81ba-3eea3ad244fa"
    },
    "files/MonitoringCollector/Bin/cpuz/cpuz_x32.exe": {
        "wxs_id": "0ca666dc-7216-4d0f-96e7-5b76e425a63b"
    },
    "files/MonitoringCollector/Bin/cpuz/eula.txt": {
        "wxs_id": "bcc6717f-98cb-488e-a88d-d9c60dd6a065"
    },
    "files/MonitoringCollector/Scripts/monitoring_collector_services.ps1": {
        "wxs_id": "d5eb451f-0ffd-4129-99bc-f7806cbaec0f"
    },
    "files/MonitoringCollector/Scripts/monitoring_collector_apps.ps1": {
        "wxs_id": "8bee56fa-bde7-48c7-8594-65837fb83f90"
    },
    "files/MonitoringCollector/Scripts/monitoring_collector_run.bat": {
        "wxs_id": "1cbeaa2d-7207-498b-bc85-4f0a72938838"
    },
    "files/MonitoringCollector/Scripts/monitoring_collector_hardware.ps1": {
        "wxs_id": "60401729-28f7-4cd1-ae8d-31c02f3432de"
    },
    "files/MonitoringCollector/Scripts/monitoring_collector_wlan_sync.ps1": {
        "wxs_id": "110cbd1b-242c-4c1e-9834-a25fee551da3"
    },
    "files/MonitoringClientInst/Modules": {
        "wxs_id": "c5335d70-a772-48fc-a977-85ac2d965370"
    },
    "files/MonitoringClientInst/Scripts": {
        "wxs_id": "a83be850-c4d4-4849-afb8-dcd74bfd664c"
    },
    "files/MonitoringClientInst/Modules/doc": {
        "wxs_id": "e3dba66d-e635-45c3-be19-9b3b0fea7a80"
    },
    "files/MonitoringClientInst/Modules/Icinga2Agent": {
        "wxs_id": "2e58a308-ac08-4292-a8f6-b277cfe094b1"
    },
    "files/MonitoringClientInst/Modules/LICENSE": {
        "wxs_id": "af5258af-f8b2-4188-a94b-fdbd6bb2d18f"
    },
    "files/MonitoringClientInst/Modules/.git": {
        "wxs_id": "42ea2a91-eabf-40be-b694-3ed668c65b32"
    },
    "files/MonitoringClientInst/Modules/README.md": {
        "wxs_id": "ab2cde77-9432-4de6-ac8b-b3c8d20f915e"
    },
    "files/MonitoringClientInst/Modules/doc/screenshots": {
        "wxs_id": "296815ec-4b0f-4852-8e79-eaeea739e1c0"
    },
    "files/MonitoringClientInst/Modules/doc/31-Placeholders.md": {
        "wxs_id": "0fcf46f2-7333-4fdf-904e-a85f48484141"
    },
    "files/MonitoringClientInst/Modules/doc/31-Uninstall-Agent.md": {
        "wxs_id": "efe2028e-cd17-44f2-9d17-a57a3e04bc68"
    },
    "files/MonitoringClientInst/Modules/doc/40-Extensions.md": {
        "wxs_id": "2ef83c88-8443-478a-bde7-37310d72d374"
    },
    "files/MonitoringClientInst/Modules/doc/10-Basic-Arguments.md": {
        "wxs_id": "6f9eea5f-573d-432f-b4d6-58a809dd5a18"
    },
    "files/MonitoringClientInst/Modules/doc/11-Director-Arguments.md": {
        "wxs_id": "da8a0ab4-1577-4a44-802b-def512a1b295"
    },
    "files/MonitoringClientInst/Modules/doc/01-Introduction.md": {
        "wxs_id": "8a350ee6-6f6b-4db1-8c5b-416dc9e97be4"
    },
    "files/MonitoringClientInst/Modules/doc/12-NSClient-Arguments.md": {
        "wxs_id": "df99156e-0605-40ba-8189-2eae7032e194"
    },
    "files/MonitoringClientInst/Modules/doc/50-troubleshooting.md": {
        "wxs_id": "daee1eb8-8e99-4651-8386-7e9ab02448b0"
    },
    "files/MonitoringClientInst/Modules/doc/13-Icinga2-CA-Proxy.md": {
        "wxs_id": "31085156-730c-402c-ae44-891e4564e049"
    },
    "files/MonitoringClientInst/Modules/doc/70-Changelog.md": {
        "wxs_id": "a17c4471-c579-4938-8d42-830b2d7d3919"
    },
    "files/MonitoringClientInst/Modules/doc/20-Automation.md": {
        "wxs_id": "302fb318-d80b-488b-88fc-f483fddacb06"
    },
    "files/MonitoringClientInst/Modules/doc/02-Installation.md": {
        "wxs_id": "37045abf-4fca-4af7-aa53-3c23b0b210fb"
    },
    "files/MonitoringClientInst/Modules/doc/30-Examples.md": {
        "wxs_id": "bbbc4cd1-e5f1-4962-9a68-bd32ab16556e"
    },
    "files/MonitoringClientInst/Modules/doc/screenshots/20-automation": {
        "wxs_id": "04c4ad20-dbd9-44c3-8512-70280aa7b31f"
    },
    "files/MonitoringClientInst/Modules/doc/screenshots/20-automation/self-service-api.png": {
        "wxs_id": "3fc1b9e3-0853-4146-94e1-6e70d972ce36"
    },
    "files/MonitoringClientInst/Modules/doc/screenshots/20-automation/agent_host_template_api.png": {
        "wxs_id": "453fb384-cfde-4ea1-a4b7-5623bf587a30"
    },
    "files/MonitoringClientInst/Modules/Icinga2Agent/Icinga2Agent.psm1": {
        "wxs_id": "c68c5a22-0719-40d6-b5a7-0e5fdc7aa3df"
    },
    "files/MonitoringClientInst/Scripts/icinga-powershell-kickstart": {
        "wxs_id": "9077c319-48a8-450e-a4ff-57782308f73c"
    },
    "files/MonitoringClientInst/Scripts/client_install.ps1": {
        "wxs_id": "3e6f4d4e-2fd9-448e-91fa-af741c52eaed"
    },
    "files/MonitoringClientInst/Scripts/client_install.bat": {
        "wxs_id": "5f13349f-c0ed-418a-86a0-57d5009ad979"
    },
    "files/MonitoringClientInst/Scripts/icinga-powershell-kickstart/doc": {
        "wxs_id": "f6ad46dd-fba2-4f70-887a-5c389df195d8"
    },
    "files/MonitoringClientInst/Scripts/icinga-powershell-kickstart/script": {
        "wxs_id": "2529dbbd-0b34-471a-ac86-b0899117863c"
    },
    "files/MonitoringClientInst/Scripts/icinga-powershell-kickstart/LICENSE": {
        "wxs_id": "38a39334-bd79-4ab8-a693-0928e669a4ab"
    },
    "files/MonitoringClientInst/Scripts/icinga-powershell-kickstart/.git": {
        "wxs_id": "53a78e51-6005-4ddd-a69d-dbcb1f25f044"
    },
    "files/MonitoringClientInst/Scripts/icinga-powershell-kickstart/README.md": {
        "wxs_id": "822b9bbf-7f47-4d71-b302-bfb3de844fcb"
    },
    "files/MonitoringClientInst/Scripts/icinga-powershell-kickstart/doc/30-Upgrading-Kickstart.md": {
        "wxs_id": "837bfe62-b387-421a-a14e-617089e708e3"
    },
    "files/MonitoringClientInst/Scripts/icinga-powershell-kickstart/doc/01-Introduction.md": {
        "wxs_id": "8f4f68a1-ad6b-4945-827c-74a423920f3d"
    },
    "files/MonitoringClientInst/Scripts/icinga-powershell-kickstart/doc/31-Changelog.md": {
        "wxs_id": "b0859a1d-b18d-42c2-bc4f-c2f251e66aa2"
    },
    "files/MonitoringClientInst/Scripts/icinga-powershell-kickstart/script/icinga-powershell-kickstart.ps1": {
        "wxs_id": "01202492-5a86-4e05-a4a2-6e9246b1b802"
    },
    "files/MonitoringIcingaPsFramework/Modules": {
        "wxs_id": "67312f41-d71d-47c1-a192-6f54d98660e3"
    },
    "files/MonitoringIcingaPsFramework/Modules/.github": {
        "wxs_id": "96909e9f-1f48-497c-b282-c88ce0eff843"
    },
    "files/MonitoringIcingaPsFramework/Modules/custom": {
        "wxs_id": "497fa9b9-354b-4e5b-9195-547394bec5c0"
    },
    "files/MonitoringIcingaPsFramework/Modules/doc": {
        "wxs_id": "fd098fd4-44ee-4783-a9d1-4c03732e8955"
    },
    "files/MonitoringIcingaPsFramework/Modules/cache": {
        "wxs_id": "39ba996f-94a1-406c-b851-f3bdcb1daebf"
    },
    "files/MonitoringIcingaPsFramework/Modules/lib": {
        "wxs_id": "4204f16a-044c-46aa-bbe5-a58c2cd20397"
    },
    "files/MonitoringIcingaPsFramework/Modules/.gitignore": {
        "wxs_id": "0372f27b-3ac2-42af-9ebd-4653a7e234bc"
    },
    "files/MonitoringIcingaPsFramework/Modules/icinga-powershell-framework.psm1": {
        "wxs_id": "0d21b439-b1e6-44f4-a60f-54666b82072a"
    },
    "files/MonitoringIcingaPsFramework/Modules/PSScriptAnalyzerSettings.psd1": {
        "wxs_id": "204f7523-0fff-4049-a6a7-de5d876f5dde"
    },
    "files/MonitoringIcingaPsFramework/Modules/LICENSE": {
        "wxs_id": "595db891-0aa0-4266-8be6-b9937129f8d0"
    },
    "files/MonitoringIcingaPsFramework/Modules/.git": {
        "wxs_id": "caf700e9-e53a-4004-9c61-a4d320deb4b6"
    },
    "files/MonitoringIcingaPsFramework/Modules/README.md": {
        "wxs_id": "a32aa7e6-6590-4c8c-b515-95b200f1cd31"
    },
    "files/MonitoringIcingaPsFramework/Modules/icinga-powershell-framework.psd1": {
        "wxs_id": "9f4e110a-63bf-46ca-ad14-15315917f8e8"
    },
    "files/MonitoringIcingaPsFramework/Modules/.gitattributes": {
        "wxs_id": "71955465-d4d3-4694-9197-2caf24443020"
    },
    "files/MonitoringIcingaPsFramework/Modules/.github/ISSUE_TEMPLATE": {
        "wxs_id": "ec6909a3-b598-4d18-aeac-a00fdd9ce46a"
    },
    "files/MonitoringIcingaPsFramework/Modules/.github/ISSUE_TEMPLATE/create-new-issue.md": {
        "wxs_id": "9124d3c8-0250-4d15-8509-fff6fdea4450"
    },
    "files/MonitoringIcingaPsFramework/Modules/custom/plugins": {
        "wxs_id": "2a183db8-f453-414d-bccd-38c5c542855c"
    },
    "files/MonitoringIcingaPsFramework/Modules/custom/lib": {
        "wxs_id": "951349b0-bfeb-4450-aba1-b8b0b5a63234"
    },
    "files/MonitoringIcingaPsFramework/Modules/custom/plugins/README.md": {
        "wxs_id": "1460f45b-0b02-44fc-8fdb-0919453da4df"
    },
    "files/MonitoringIcingaPsFramework/Modules/custom/lib/README.md": {
        "wxs_id": "3d6b6865-1c67-491b-93c2-92fe15ac8f7d"
    },
    "files/MonitoringIcingaPsFramework/Modules/doc/images": {
        "wxs_id": "0a074aa6-8ef4-43c4-a837-d1f55fc5c495"
    },
    "files/MonitoringIcingaPsFramework/Modules/doc/frameworkusage": {
        "wxs_id": "8cda4ab4-5587-4dc2-8750-92a1b749c96a"
    },
    "files/MonitoringIcingaPsFramework/Modules/doc/developerguide": {
        "wxs_id": "47571d3a-4fe8-4a71-88e6-bc9bb5fed811"
    },
    "files/MonitoringIcingaPsFramework/Modules/doc/installation": {
        "wxs_id": "eacdc7a2-55fe-4801-b29c-4ef8e3632bf3"
    },
    "files/MonitoringIcingaPsFramework/Modules/doc/icingaintegration": {
        "wxs_id": "22b6be1e-9bc5-4b58-847d-c89a508d801f"
    },
    "files/MonitoringIcingaPsFramework/Modules/doc/service": {
        "wxs_id": "399db187-885b-4fda-91a2-d256b5cee1cf"
    },
    "files/MonitoringIcingaPsFramework/Modules/doc/20-Eventlog.md": {
        "wxs_id": "4a0c6d46-b28e-435f-9ee1-033218c39a62"
    },
    "files/MonitoringIcingaPsFramework/Modules/doc/06-Framework-Usage.md": {
        "wxs_id": "394122ef-6416-47ea-8017-19bd79943158"
    },
    "files/MonitoringIcingaPsFramework/Modules/doc/01-Introduction.md": {
        "wxs_id": "d6ce6f29-76ce-43cf-8783-999665d426a9"
    },
    "files/MonitoringIcingaPsFramework/Modules/doc/30-upgrading-framework.md": {
        "wxs_id": "8352900d-f621-43b5-a7ef-1a597bf4ea02"
    },
    "files/MonitoringIcingaPsFramework/Modules/doc/05-Icinga-Integration.md": {
        "wxs_id": "ca12933d-1ec3-4b9a-8036-91f36d4369f5"
    },
    "files/MonitoringIcingaPsFramework/Modules/doc/04-Developer-Guide.md": {
        "wxs_id": "2bd143da-3a71-42b8-8a42-6d7c8c1ab558"
    },
    "files/MonitoringIcingaPsFramework/Modules/doc/90-Roadmap.md": {
        "wxs_id": "8877d9e2-4ebe-4673-b420-e03e6b5a4600"
    },
    "files/MonitoringIcingaPsFramework/Modules/doc/02-Installation.md": {
        "wxs_id": "91423503-20c6-43f8-a369-8b8a5487ab09"
    },
    "files/MonitoringIcingaPsFramework/Modules/doc/31-Changelog.md": {
        "wxs_id": "d924aaca-da41-4ee8-a240-e28f3c6f9725"
    },
    "files/MonitoringIcingaPsFramework/Modules/doc/images/03_windows_terminal": {
        "wxs_id": "2c80ba13-cd1e-44f0-ad3c-fd5d5fd1960b"
    },
    "files/MonitoringIcingaPsFramework/Modules/doc/images/01_architecture": {
        "wxs_id": "82ce71d9-f923-4959-a26e-af058712c00a"
    },
    "files/MonitoringIcingaPsFramework/Modules/doc/images/02_icons": {
        "wxs_id": "e30bad7d-1501-4ae0-9b82-653887ea041a"
    },
    "files/MonitoringIcingaPsFramework/Modules/doc/images/03_windows_terminal/icingawhite.png": {
        "wxs_id": "cd712232-6c98-4fd8-a8ef-67cd323c631e"
    },
    "files/MonitoringIcingaPsFramework/Modules/doc/images/03_windows_terminal/icinga_shell.png": {
        "wxs_id": "e855daae-055a-4bca-979c-c0118c364dfb"
    },
    "files/MonitoringIcingaPsFramework/Modules/doc/images/01_architecture/architecture.png": {
        "wxs_id": "047204a4-18ea-4525-9708-6f3da94e6d6e"
    },
    "files/MonitoringIcingaPsFramework/Modules/doc/images/02_icons/plugins.png": {
        "wxs_id": "02347ed3-43fa-43e5-b329-3cf600f01d7e"
    },
    "files/MonitoringIcingaPsFramework/Modules/doc/images/02_icons/restapi.png": {
        "wxs_id": "59a59b08-812d-493b-8eaf-1bcf8fad18c3"
    },
    "files/MonitoringIcingaPsFramework/Modules/doc/images/02_icons/hyperv.png": {
        "wxs_id": "758952e7-0048-46fd-a29f-1caf86c8bc02"
    },
    "files/MonitoringIcingaPsFramework/Modules/doc/images/02_icons/framework.png": {
        "wxs_id": "d204c64e-a57b-4277-8ad7-3e49a1d7c917"
    },
    "files/MonitoringIcingaPsFramework/Modules/doc/images/02_icons/kickstart.png": {
        "wxs_id": "ae4cf987-55cd-4c6f-934a-3dde0c40170c"
    },
    "files/MonitoringIcingaPsFramework/Modules/doc/images/02_icons/inventory.png": {
        "wxs_id": "355e07b5-c873-45b9-8413-0573dc0ed586"
    },
    "files/MonitoringIcingaPsFramework/Modules/doc/images/02_icons/mssql.png": {
        "wxs_id": "8ad078c9-ac6c-42eb-9bab-1745d43bd1dd"
    },
    "files/MonitoringIcingaPsFramework/Modules/doc/frameworkusage/01-Automated-Framework-and-Component-Deployment.md": {
        "wxs_id": "3ef7b9fc-ff65-4e43-ad7a-976c37ba4e50"
    },
    "files/MonitoringIcingaPsFramework/Modules/doc/frameworkusage/31-Read-Icinga-Agent_Log_DebugLog.md": {
        "wxs_id": "cc834bf5-c103-47aa-b03e-4160dd9ea9dc"
    },
    "files/MonitoringIcingaPsFramework/Modules/doc/frameworkusage/32-Test-Icinga-Agent-Environment.md": {
        "wxs_id": "aae2b0b0-02b0-4640-a9b2-96e326f07e8e"
    },
    "files/MonitoringIcingaPsFramework/Modules/doc/frameworkusage/30-Manage-Icinga-Agent-Features.md": {
        "wxs_id": "9eca40d4-8212-4e39-a6a3-d466e9c00dd0"
    },
    "files/MonitoringIcingaPsFramework/Modules/doc/frameworkusage/33-Run-Icinga-Agent-As-Other-Service-User.md": {
        "wxs_id": "eb3187e7-3fb9-4c08-8a7d-72c732c23202"
    },
    "files/MonitoringIcingaPsFramework/Modules/doc/developerguide/11-Custom-Plugins.md": {
        "wxs_id": "0b620aa5-0797-4f5f-8359-1f44544a3bf4"
    },
    "files/MonitoringIcingaPsFramework/Modules/doc/developerguide/20-Using-Console-Outputs.md": {
        "wxs_id": "2df7e95b-5e97-401b-951a-49a1ec31adcd"
    },
    "files/MonitoringIcingaPsFramework/Modules/doc/developerguide/21-Using-EventLog-Outputs.md": {
        "wxs_id": "451be5ff-3aac-4445-8996-473c81e2b4c3"
    },
    "files/MonitoringIcingaPsFramework/Modules/doc/developerguide/03-New-IcingaCheckResult.md": {
        "wxs_id": "975f0bb1-da8c-46bc-b8dc-e94b20707881"
    },
    "files/MonitoringIcingaPsFramework/Modules/doc/developerguide/52-Testing-of-Commands.md": {
        "wxs_id": "64c99327-4b50-4739-9927-3df3a2e36c97"
    },
    "files/MonitoringIcingaPsFramework/Modules/doc/developerguide/51-Working-with-Performance-Counters.md": {
        "wxs_id": "b4fe9e1b-d250-4b02-b81d-81d9a16ef807"
    },
    "files/MonitoringIcingaPsFramework/Modules/doc/developerguide/50-Fetching-Cim_and_Wmi_Data.md": {
        "wxs_id": "cd3bd671-0a91-4ccc-803f-aed8ffa13bb8"
    },
    "files/MonitoringIcingaPsFramework/Modules/doc/developerguide/12-Custom-API-Endpoints.md": {
        "wxs_id": "b878a573-29f8-4aed-a990-cd497eba9c44"
    },
    "files/MonitoringIcingaPsFramework/Modules/doc/developerguide/01-New-IcingaCheck.md": {
        "wxs_id": "c490ec0c-b0fa-4bce-a3aa-00a0b9f50b22"
    },
    "files/MonitoringIcingaPsFramework/Modules/doc/developerguide/02-New-IcingaCheckPackage.md": {
        "wxs_id": "721937b1-f623-4ae8-bbe6-c875614a7d88"
    },
    "files/MonitoringIcingaPsFramework/Modules/doc/developerguide/10-Custom-Daemons.md": {
        "wxs_id": "4bde81d9-772d-4abb-88c9-88baaed6457f"
    },
    "files/MonitoringIcingaPsFramework/Modules/doc/installation/02-Manual-Installation.md": {
        "wxs_id": "9efcf3e5-ba5d-42cc-a51b-79d541f7341c"
    },
    "files/MonitoringIcingaPsFramework/Modules/doc/installation/03-PowerShell-Gallery-Installation.md": {
        "wxs_id": "22e58fe0-5a1b-40ad-be31-e350eef064d5"
    },
    "files/MonitoringIcingaPsFramework/Modules/doc/installation/01-Kickstart-Script.md": {
        "wxs_id": "eb8f4a41-365b-45e3-a1e4-4057537f30c1"
    },
    "files/MonitoringIcingaPsFramework/Modules/doc/installation/04-Icinga-Agent-Wizard.md": {
        "wxs_id": "3244d4aa-0936-48c3-afdc-03b0ce4cc92d"
    },
    "files/MonitoringIcingaPsFramework/Modules/doc/icingaintegration/03-PowerShell-Arrays.md": {
        "wxs_id": "75618e3d-1ba6-4419-9c11-5648b291f58e"
    },
    "files/MonitoringIcingaPsFramework/Modules/doc/icingaintegration/01-Director-Baskets.md": {
        "wxs_id": "1f793606-1ee1-440c-8027-8584405ad0ad"
    },
    "files/MonitoringIcingaPsFramework/Modules/doc/icingaintegration/02-Manual-Integration.md": {
        "wxs_id": "c9bc5ebb-21e9-4f47-ba6a-b5783b30584c"
    },
    "files/MonitoringIcingaPsFramework/Modules/doc/icingaintegration/50-Windows-Terminal.md": {
        "wxs_id": "0afd32ed-24d8-4f1f-9bc4-0b3bfa38e4af"
    },
    "files/MonitoringIcingaPsFramework/Modules/doc/service/02-Register-Daemons.md": {
        "wxs_id": "0b865c5c-bbc2-46de-9ba7-f668bdbc7449"
    },
    "files/MonitoringIcingaPsFramework/Modules/doc/service/01-Install-Service.md": {
        "wxs_id": "de57490b-4d42-461a-a0e5-f5ef0515486c"
    },
    "files/MonitoringIcingaPsFramework/Modules/doc/service/10-Register-Service-Checks.md": {
        "wxs_id": "2b014b90-5e07-4a48-b5ab-3f84354e4bb0"
    },
    "files/MonitoringIcingaPsFramework/Modules/cache/README.md": {
        "wxs_id": "735c2f55-06e0-4925-9d49-5add730dec18"
    },
    "files/MonitoringIcingaPsFramework/Modules/lib/mssql": {
        "wxs_id": "d756bf6e-43f2-4e22-8f98-c6390858be8c"
    },
    "files/MonitoringIcingaPsFramework/Modules/lib/config": {
        "wxs_id": "70619226-2fa2-408b-b11b-ef2f6658aef5"
    },
    "files/MonitoringIcingaPsFramework/Modules/lib/icinga": {
        "wxs_id": "7110fdd2-c5cf-4286-a9df-a587c4308ca0"
    },
    "files/MonitoringIcingaPsFramework/Modules/lib/daemon": {
        "wxs_id": "e699cd6b-d84c-49ae-94a4-fada5bfec911"
    },
    "files/MonitoringIcingaPsFramework/Modules/lib/core": {
        "wxs_id": "04562467-1f89-4eee-a35d-f49fd864eb50"
    },
    "files/MonitoringIcingaPsFramework/Modules/lib/web": {
        "wxs_id": "3fce4d6b-20b4-406a-85ef-0d3e31608283"
    },
    "files/MonitoringIcingaPsFramework/Modules/lib/help": {
        "wxs_id": "0bb7e003-806f-4728-82b9-04051c982574"
    },
    "files/MonitoringIcingaPsFramework/Modules/lib/apis": {
        "wxs_id": "c6c1603b-37c5-4c24-8856-445658c83b9c"
    },
    "files/MonitoringIcingaPsFramework/Modules/lib/daemons": {
        "wxs_id": "cf4020c2-307a-481e-8d14-e7de4d7f87e5"
    },
    "files/MonitoringIcingaPsFramework/Modules/lib/mssql/Open-IcingaMSSQLConnection.psm1": {
        "wxs_id": "5362aa25-2d20-4041-8232-12f3374390e3"
    },
    "files/MonitoringIcingaPsFramework/Modules/lib/mssql/New-IcingaMSSQLCommand.psm1": {
        "wxs_id": "ed18d672-8d28-4f24-9f30-6d16bb6bf42f"
    },
    "files/MonitoringIcingaPsFramework/Modules/lib/mssql/Get-IcingaMSSQLInstanceName.psm1": {
        "wxs_id": "3a289ac9-d7a2-4fb5-a307-cabdc252a268"
    },
    "files/MonitoringIcingaPsFramework/Modules/lib/mssql/Close-IcingaMSSQLConnection.psm1": {
        "wxs_id": "fc071a64-029c-4563-8791-7ae9bda1f38f"
    },
    "files/MonitoringIcingaPsFramework/Modules/lib/mssql/Send-IcingaMSSQLCommand.psm1": {
        "wxs_id": "0e1cae4a-9e73-4c0e-bd3d-b0567ecb1cb0"
    },
    "files/MonitoringIcingaPsFramework/Modules/lib/config/Test-IcingaPowerShellConfigItem.psm1": {
        "wxs_id": "6bdb99f6-d27d-433b-9730-8fd6032b7364"
    },
    "files/MonitoringIcingaPsFramework/Modules/lib/config/Get-IcingaConfigTreeCount.psm1": {
        "wxs_id": "a59e2a38-b0f5-4552-8271-3d6f9a3addd2"
    },
    "files/MonitoringIcingaPsFramework/Modules/lib/config/New-IcingaPowerShellConfigItem.psm1": {
        "wxs_id": "4556d687-f930-4771-87ea-a6eb931717d0"
    },
    "files/MonitoringIcingaPsFramework/Modules/lib/config/Get-IcingaPowerShellConfig.psm1": {
        "wxs_id": "ea3776a4-4bf1-4768-87e1-a3299307a6de"
    },
    "files/MonitoringIcingaPsFramework/Modules/lib/config/Read-IcingaPowerShellConfig.psm1": {
        "wxs_id": "95d1f471-5cc2-4239-b464-c89b965b5017"
    },
    "files/MonitoringIcingaPsFramework/Modules/lib/config/Remove-IcingaPowerShellConfig.psm1": {
        "wxs_id": "bcd8eba2-ac2e-454e-9715-c239439aae6e"
    },
    "files/MonitoringIcingaPsFramework/Modules/lib/config/Set-IcingaPowerShellConfig.psm1": {
        "wxs_id": "ea71d78e-50a7-4d50-9705-1429889f54e4"
    },
    "files/MonitoringIcingaPsFramework/Modules/lib/config/Write-IcingaPowerShellConfig.psm1": {
        "wxs_id": "cd0f2fbb-2a23-4282-b584-4e73aa9e278c"
    },
    "files/MonitoringIcingaPsFramework/Modules/lib/icinga/exception": {
        "wxs_id": "dcd34849-7437-4a78-91bd-66d437003ec2"
    },
    "files/MonitoringIcingaPsFramework/Modules/lib/icinga/enums": {
        "wxs_id": "9b522652-491c-441c-a74a-7e1ac79f126e"
    },
    "files/MonitoringIcingaPsFramework/Modules/lib/icinga/plugin": {
        "wxs_id": "1a40208c-2b42-4475-ab61-c94f17cc1a90"
    },
    "files/MonitoringIcingaPsFramework/Modules/lib/icinga/exception/Icinga_IcingaExceptionEnums.psm1": {
        "wxs_id": "3834a85e-7494-478e-b903-4b6ddd129dd5"
    },
    "files/MonitoringIcingaPsFramework/Modules/lib/icinga/exception/Exit-IcingaPluginNotInstalled.psm1": {
        "wxs_id": "ab47aaf8-f295-4af7-b2f5-2afb9d320efd"
    },
    "files/MonitoringIcingaPsFramework/Modules/lib/icinga/exception/Exit-IcingaThrowException.psm1": {
        "wxs_id": "246d0178-2015-4571-a6dd-df9e990283aa"
    },
    "files/MonitoringIcingaPsFramework/Modules/lib/icinga/enums/Icinga_IcingaEnums.psm1": {
        "wxs_id": "5534e6dd-a125-450e-acbb-3172411e8267"
    },
    "files/MonitoringIcingaPsFramework/Modules/lib/icinga/plugin/Write-IcingaPluginPerfData.psm1": {
        "wxs_id": "f80c9a87-885f-4f0d-ac1e-353497784c0f"
    },
    "files/MonitoringIcingaPsFramework/Modules/lib/icinga/plugin/New-IcingaCheck.psm1": {
        "wxs_id": "a2995557-a191-45bf-a6bd-5e14bb7b2af4"
    },
    "files/MonitoringIcingaPsFramework/Modules/lib/icinga/plugin/Write-IcingaPluginOutput.psm1": {
        "wxs_id": "e36af89b-7eb9-49a5-8bbc-40d949e92280"
    },
    "files/MonitoringIcingaPsFramework/Modules/lib/icinga/plugin/New-IcingaCheckPackage.psm1": {
        "wxs_id": "20ce15d8-d9fc-4b3d-8a59-1a61bf1323ab"
    },
    "files/MonitoringIcingaPsFramework/Modules/lib/icinga/plugin/New-IcingaCheckResult.psm1": {
        "wxs_id": "157d0d8c-c81b-4df9-af59-891ae3c47557"
    },
    "files/MonitoringIcingaPsFramework/Modules/lib/icinga/plugin/New-IcingaPerformanceDataEntry.psm1": {
        "wxs_id": "b3dde6ef-7d63-43e0-911e-d081083b126d"
    },
    "files/MonitoringIcingaPsFramework/Modules/lib/daemon/Unregister-IcingaBackgroundDaemon.psm1": {
        "wxs_id": "e38ea473-3b76-4e4c-8ba9-5fc228848722"
    },
    "files/MonitoringIcingaPsFramework/Modules/lib/daemon/Start-IcingaPowerShellDaemon.psm1": {
        "wxs_id": "71d71cfe-fc30-423b-a06b-6b1a31fc6151"
    },
    "files/MonitoringIcingaPsFramework/Modules/lib/daemon/Register-IcingaBackgroundDaemon.psm1": {
        "wxs_id": "c57561c0-3250-470d-80b2-edb45a242b06"
    },
    "files/MonitoringIcingaPsFramework/Modules/lib/daemon/Get-IcingaBackgroundDaemons.psm1": {
        "wxs_id": "14da0a79-a828-4322-b735-c9d972c1e90e"
    },
    "files/MonitoringIcingaPsFramework/Modules/lib/core/framework": {
        "wxs_id": "0f9d61de-5876-45d5-b2bc-5ef43ba3e642"
    },
    "files/MonitoringIcingaPsFramework/Modules/lib/core/perfcounter": {
        "wxs_id": "465971b2-c2ba-442a-bff9-329699ddc669"
    },
    "files/MonitoringIcingaPsFramework/Modules/lib/core/tools": {
        "wxs_id": "d5087266-79df-46b7-874e-2b8b7bfe9fb6"
    },
    "files/MonitoringIcingaPsFramework/Modules/lib/core/icingaagent": {
        "wxs_id": "ffb43b5e-2a7e-404c-be6c-51810fe1413d"
    },
    "files/MonitoringIcingaPsFramework/Modules/lib/core/cache": {
        "wxs_id": "d9f6e45d-8208-4286-9781-7ed27d50dc45"
    },
    "files/MonitoringIcingaPsFramework/Modules/lib/core/thread": {
        "wxs_id": "676ba0b7-3237-4f22-9d03-1629ea3b6f1e"
    },
    "files/MonitoringIcingaPsFramework/Modules/lib/core/logging": {
        "wxs_id": "2fd151fc-4bbf-49ac-ab88-a692c4229b7d"
    },
    "files/MonitoringIcingaPsFramework/Modules/lib/core/framework/Get-IcingaFrameworkDebugMode.psm1": {
        "wxs_id": "0997a20b-b927-4873-be24-fd1a48f2aaf5"
    },
    "files/MonitoringIcingaPsFramework/Modules/lib/core/framework/Remove-ItemSecure.psm1": {
        "wxs_id": "fa35e6f5-ba68-4392-b185-25d6d082551f"
    },
    "files/MonitoringIcingaPsFramework/Modules/lib/core/framework/Get-IcingaCheckSchedulerPluginOutput.psm1": {
        "wxs_id": "0e320bff-0c30-4837-8f07-247347c174fb"
    },
    "files/MonitoringIcingaPsFramework/Modules/lib/core/framework/Restart-IcingaService.psm1": {
        "wxs_id": "e66643e4-14cd-41a8-8e74-cae4a93b0110"
    },
    "files/MonitoringIcingaPsFramework/Modules/lib/core/framework/Install-IcingaFrameworkPlugins.psm1": {
        "wxs_id": "9fb5f581-481b-4bdf-8b44-b8b1358fbb86"
    },
    "files/MonitoringIcingaPsFramework/Modules/lib/core/framework/Stop-IcingaTimer.psm1": {
        "wxs_id": "19d4267e-60ab-4418-b0ca-a3251a54ae32"
    },
    "files/MonitoringIcingaPsFramework/Modules/lib/core/framework/Get-IcingaWindowsInformation.psm1": {
        "wxs_id": "99640a56-1cfc-4056-a25e-0b0f43254e47"
    },
    "files/MonitoringIcingaPsFramework/Modules/lib/core/framework/Copy-ItemSecure.psm1": {
        "wxs_id": "917fde96-9964-4fa2-8e1f-cab8527e9125"
    },
    "files/MonitoringIcingaPsFramework/Modules/lib/core/framework/Get-IcingaPowerShellModuleVersion.psm1": {
        "wxs_id": "8a67d43f-c4f8-4160-b1ba-30be23a49cff"
    },
    "files/MonitoringIcingaPsFramework/Modules/lib/core/framework/Unblock-IcingaPowerShellFiles.psm1": {
        "wxs_id": "cc9dec5d-cb33-48b5-a216-e31f1616ca6a"
    },
    "files/MonitoringIcingaPsFramework/Modules/lib/core/framework/Get-IcingaFrameworkServiceBinary.psm1": {
        "wxs_id": "c69fb091-0378-453e-ae36-b799d5b8e75e"
    },
    "files/MonitoringIcingaPsFramework/Modules/lib/core/framework/Install-IcingaFrameworkUpdate.psm1": {
        "wxs_id": "d8224a0c-4d81-4d5f-9f2c-e7767469de51"
    },
    "files/MonitoringIcingaPsFramework/Modules/lib/core/framework/Test-IcingaTimer.psm1": {
        "wxs_id": "4f9dab18-f105-48b2-9441-10cdd6bcd3b4"
    },
    "files/MonitoringIcingaPsFramework/Modules/lib/core/framework/Start-IcingaTimer.psm1": {
        "wxs_id": "c0813922-8166-42a5-bbd7-a2d0fb291f6c"
    },
    "files/MonitoringIcingaPsFramework/Modules/lib/core/framework/Install-IcingaFrameworkComponent.psm1": {
        "wxs_id": "837134a4-c270-4ca8-9e6e-1e05d8b47884"
    },
    "files/MonitoringIcingaPsFramework/Modules/lib/core/framework/Stop-IcingaService.psm1": {
        "wxs_id": "5ffee838-a8f7-48a4-b367-a4030880cf68"
    },
    "files/MonitoringIcingaPsFramework/Modules/lib/core/framework/Show-IcingaTimer.psm1": {
        "wxs_id": "9a7af160-b57f-48e3-ad4d-6f994ba8044b"
    },
    "files/MonitoringIcingaPsFramework/Modules/lib/core/framework/Enable-IcingaFrameworkDebugMode.psm1": {
        "wxs_id": "d92db935-2f02-4f05-9a68-05857dd3ba67"
    },
    "files/MonitoringIcingaPsFramework/Modules/lib/core/framework/Invoke-IcingaNamespaceCmdlets.psm1": {
        "wxs_id": "1ec3c41f-d182-46d8-9828-e144fe8372e0"
    },
    "files/MonitoringIcingaPsFramework/Modules/lib/core/framework/Install-IcingaFrameworkService.psm1": {
        "wxs_id": "945fe506-d48d-45f9-b0f2-b712790dce62"
    },
    "files/MonitoringIcingaPsFramework/Modules/lib/core/framework/Expand-IcingaZipArchive.psm1": {
        "wxs_id": "e97747ad-71c3-490b-9c03-ed3f8e5068c2"
    },
    "files/MonitoringIcingaPsFramework/Modules/lib/core/framework/Uninstall-IcingaFrameworkService.psm1": {
        "wxs_id": "301f7982-501e-4593-9342-192fafc4773c"
    },
    "files/MonitoringIcingaPsFramework/Modules/lib/core/framework/Get-IcingaTimer.psm1": {
        "wxs_id": "8acf0ce3-d043-46dd-8396-33bae759ac0e"
    },
    "files/MonitoringIcingaPsFramework/Modules/lib/core/framework/Get-IcingaCheckSchedulerPerfData.psm1": {
        "wxs_id": "274e0c42-d536-4ed7-901e-4acf5bb0f1b8"
    },
    "files/MonitoringIcingaPsFramework/Modules/lib/core/framework/New-IcingaCheckSchedulerEnvironment.psm1": {
        "wxs_id": "2d3a5096-f8a4-4d47-aab3-cba03a268f67"
    },
    "files/MonitoringIcingaPsFramework/Modules/lib/core/framework/Disable-IcingaFrameworkDebugMode.psm1": {
        "wxs_id": "df2de9de-9787-4cc9-bb2d-04d33eb8f313"
    },
    "files/MonitoringIcingaPsFramework/Modules/lib/core/framework/Start-IcingaService.psm1": {
        "wxs_id": "82f9bc26-6f74-46e0-aa3b-67ab40a461a7"
    },
    "files/MonitoringIcingaPsFramework/Modules/lib/core/framework/Test-IcingaZipBinaryChecksum.psm1": {
        "wxs_id": "54436b7c-af78-4b64-8eb2-f642ee8e45f9"
    },
    "files/MonitoringIcingaPsFramework/Modules/lib/core/framework/Get-IcingaPowerShellModuleArchive.psm1": {
        "wxs_id": "95d1f111-2829-4be5-9c6f-001ccca192c7"
    },
    "files/MonitoringIcingaPsFramework/Modules/lib/core/perfcounter/Show-IcingaPerformanceCounterCategories.psm1": {
        "wxs_id": "b9df2683-d32a-4602-8d81-25c0badbbb9e"
    },
    "files/MonitoringIcingaPsFramework/Modules/lib/core/perfcounter/Test-IcingaPerformanceCounterCategory.psm1": {
        "wxs_id": "160d1258-8dbd-48d5-8960-d6a54bc436a8"
    },
    "files/MonitoringIcingaPsFramework/Modules/lib/core/perfcounter/New-IcingaPerformanceCounter.psm1": {
        "wxs_id": "2394a939-b5b5-4475-9da9-a3aeb2f59d42"
    },
    "files/MonitoringIcingaPsFramework/Modules/lib/core/perfcounter/New-IcingaPerformanceCounterResult.psm1": {
        "wxs_id": "b2006dd7-3869-4abe-9f73-8368a7a29413"
    },
    "files/MonitoringIcingaPsFramework/Modules/lib/core/perfcounter/Get-IcingaPerformanceCounterCacheItem.psm1": {
        "wxs_id": "c5521161-185d-4296-86fb-2031c3f164fd"
    },
    "files/MonitoringIcingaPsFramework/Modules/lib/core/perfcounter/Add-IcingaPerformanceCounterCache.psm1": {
        "wxs_id": "d9d1051b-1aba-4e84-bef7-2bea6028b3f1"
    },
    "files/MonitoringIcingaPsFramework/Modules/lib/core/perfcounter/Show-IcingaPerformanceCounterInstances.psm1": {
        "wxs_id": "5ddb6e66-611e-4c72-9101-594e00c25317"
    },
    "files/MonitoringIcingaPsFramework/Modules/lib/core/perfcounter/Show-IcingaPerformanceCounters.psm1": {
        "wxs_id": "3410da66-5916-4788-9fa3-1415c89213c8"
    },
    "files/MonitoringIcingaPsFramework/Modules/lib/core/perfcounter/Show-IcingaPerformanceCounterHelp.psm1": {
        "wxs_id": "85889a4f-9b84-45d4-847d-c204e37e62f9"
    },
    "files/MonitoringIcingaPsFramework/Modules/lib/core/perfcounter/New-IcingaPerformanceCounterObject.psm1": {
        "wxs_id": "a4c84648-e009-4b74-ac0e-2cae44d20591"
    },
    "files/MonitoringIcingaPsFramework/Modules/lib/core/perfcounter/New-IcingaPerformanceCounterStructure.psm1": {
        "wxs_id": "f5bd9228-7af9-4be5-8e9b-1fe2949cf4a6"
    },
    "files/MonitoringIcingaPsFramework/Modules/lib/core/perfcounter/New-IcingaPerformanceCounterArray.psm1": {
        "wxs_id": "9c4a2f49-c3cf-44c6-86df-697b427377c0"
    },
    "files/MonitoringIcingaPsFramework/Modules/lib/core/perfcounter/New-IcingaPerformanceCounterCache.psm1": {
        "wxs_id": "9232571d-07d4-4aab-8bb2-aa5d6381b88d"
    },
    "files/MonitoringIcingaPsFramework/Modules/lib/core/perfcounter/New-IcingaPerformanceCounterNullObject.psm1": {
        "wxs_id": "6395b28e-950c-4109-9158-8a6b71afbe5d"
    },
    "files/MonitoringIcingaPsFramework/Modules/lib/core/tools/Get-IcingaUnixTime.psm1": {
        "wxs_id": "1484bb80-6ddd-4439-841a-e76d8efaa81b"
    },
    "files/MonitoringIcingaPsFramework/Modules/lib/core/tools/ConvertTo-IcingaSecureString.psm1": {
        "wxs_id": "671c1996-9d22-4bbc-893b-183b443d5ba9"
    },
    "files/MonitoringIcingaPsFramework/Modules/lib/core/tools/ConvertFrom-IcingaSecureString.psm1": {
        "wxs_id": "f2a16add-aab3-4eda-9d76-d968ce1a8da8"
    },
    "files/MonitoringIcingaPsFramework/Modules/lib/core/tools/Test-AdministrativeShell.psm1": {
        "wxs_id": "fc57c730-75ff-4af7-858f-ad0345de58c3"
    },
    "files/MonitoringIcingaPsFramework/Modules/lib/core/tools/Test-IcingaFunction.psm1": {
        "wxs_id": "c9ac4427-8b7f-4873-907a-9114e5329773"
    },
    "files/MonitoringIcingaPsFramework/Modules/lib/core/tools/ConvertTo-IcingaIPv4BinaryString.psm1": {
        "wxs_id": "addc54ec-1c0e-4c43-9daa-8047e7603497"
    },
    "files/MonitoringIcingaPsFramework/Modules/lib/core/tools/New-IcingaCheckCommand.psm1": {
        "wxs_id": "c1d02110-8545-4224-b451-f891f38dd30d"
    },
    "files/MonitoringIcingaPsFramework/Modules/lib/core/tools/ConvertTo-ByteUnitIEC.psm1": {
        "wxs_id": "23c537f0-73ab-4edd-af40-db1d2e462527"
    },
    "files/MonitoringIcingaPsFramework/Modules/lib/core/tools/New-StringTree.psm1": {
        "wxs_id": "3b90e57c-3f99-435a-9ed8-b66f8a3c4354"
    },
    "files/MonitoringIcingaPsFramework/Modules/lib/core/tools/Add-PSCustomObjectMember.psm1": {
        "wxs_id": "8f1ac57c-6d70-4fd9-bd56-e04bf786eeda"
    },
    "files/MonitoringIcingaPsFramework/Modules/lib/core/tools/Get-IPConfigFromString.psm1": {
        "wxs_id": "e495fc22-b6cc-4a87-b35c-4057ff0758d9"
    },
    "files/MonitoringIcingaPsFramework/Modules/lib/core/tools/Add-IcingaHashtableItem.psm1": {
        "wxs_id": "5054a5bb-197f-4963-9c85-f418bfc6becb"
    },
    "files/MonitoringIcingaPsFramework/Modules/lib/core/tools/ConvertTo-Integer.psm1": {
        "wxs_id": "7590ff52-7390-4465-b96c-07c65ee64b53"
    },
    "files/MonitoringIcingaPsFramework/Modules/lib/core/tools/Get-UnitPrefixIEC.psm1": {
        "wxs_id": "322f1fa5-9e76-4b6c-9aee-fb38ea3ce309"
    },
    "files/MonitoringIcingaPsFramework/Modules/lib/core/tools/Test-Numeric.psm1": {
        "wxs_id": "997661ff-0150-40ae-a777-f1127e78de91"
    },
    "files/MonitoringIcingaPsFramework/Modules/lib/core/tools/Get-IcingaPSObjectProperties.psm1": {
        "wxs_id": "1fb248fa-059e-4da8-9ea2-7cf84c539650"
    },
    "files/MonitoringIcingaPsFramework/Modules/lib/core/tools/Remove-IcingaDirectorSelfServiceKey.psm1": {
        "wxs_id": "f2884f73-3336-4587-85b9-9458a132f739"
    },
    "files/MonitoringIcingaPsFramework/Modules/lib/core/tools/New-IcingaTemporaryDirectory.psm1": {
        "wxs_id": "3ab4d284-0e42-4b11-836c-ea94410de3b5"
    },
    "files/MonitoringIcingaPsFramework/Modules/lib/core/tools/Get-StringSha1.psm1": {
        "wxs_id": "eb5003bc-0908-4642-ad6f-0ed841cd6bbc"
    },
    "files/MonitoringIcingaPsFramework/Modules/lib/core/tools/ConvertTo-ByteUnitSI.psm1": {
        "wxs_id": "6c3fc5b3-e8a2-4cab-bcab-834e5db71419"
    },
    "files/MonitoringIcingaPsFramework/Modules/lib/core/tools/Get-IcingaNetworkInterface.psm1": {
        "wxs_id": "496c0ca1-687c-4516-b9d3-23db31898b07"
    },
    "files/MonitoringIcingaPsFramework/Modules/lib/core/tools/Split-IcingaCheckCommandArgs.psm1": {
        "wxs_id": "aecb8883-1745-474d-9cd3-82f495cf5ee8"
    },
    "files/MonitoringIcingaPsFramework/Modules/lib/core/tools/ConvertTo-Seconds.psm1": {
        "wxs_id": "673ec5e0-b663-427a-b7e0-e1d7cb621765"
    },
    "files/MonitoringIcingaPsFramework/Modules/lib/core/tools/Expand-IcingaIPv6String.psm1": {
        "wxs_id": "b4289221-45f4-45a3-8547-dcc35cec0960"
    },
    "files/MonitoringIcingaPsFramework/Modules/lib/core/tools/Test-PSCustomObjectMember.psm1": {
        "wxs_id": "d6f26a47-faf2-41da-b986-ddc501261808"
    },
    "files/MonitoringIcingaPsFramework/Modules/lib/core/tools/Get-IcingaServices.psm1": {
        "wxs_id": "7e7dc15a-3cda-43e0-8f57-67ec47105f26"
    },
    "files/MonitoringIcingaPsFramework/Modules/lib/core/tools/Show-IcingaDirectorSelfServiceKey.psm1": {
        "wxs_id": "de86cd88-1704-4682-a4f1-6658bd514783"
    },
    "files/MonitoringIcingaPsFramework/Modules/lib/core/tools/Format-IcingaPerfDataLabel.psm1": {
        "wxs_id": "d4b8f699-9073-440a-bf2e-0823acb4bd2b"
    },
    "files/MonitoringIcingaPsFramework/Modules/lib/core/tools/Get-UnitPrefixSI.psm1": {
        "wxs_id": "b81c060d-aee1-4f5a-bf25-06e65cb56d62"
    },
    "files/MonitoringIcingaPsFramework/Modules/lib/core/tools/New-IcingaBasicAuthHeader.psm1": {
        "wxs_id": "6c5d392e-deb5-4fbc-9dcb-a3631b3415c3"
    },
    "files/MonitoringIcingaPsFramework/Modules/lib/core/tools/ConvertTo-IcingaIPBinaryString.psm1": {
        "wxs_id": "b2b24eec-684b-4f69-b21b-a60ada2d36ab"
    },
    "files/MonitoringIcingaPsFramework/Modules/lib/core/tools/Get-IcingaCheckCommandConfig.psm1": {
        "wxs_id": "85631b06-3a8e-4e66-9d8e-ff6c40d99f50"
    },
    "files/MonitoringIcingaPsFramework/Modules/lib/core/tools/Get-IcingaHashtableItem.psm1": {
        "wxs_id": "5768b951-9032-4308-93f2-d7f6362dfb2d"
    },
    "files/MonitoringIcingaPsFramework/Modules/lib/core/tools/New-IcingaNewLine.psm1": {
        "wxs_id": "03774c58-085e-44f3-90a0-51c0f1a6b783"
    },
    "files/MonitoringIcingaPsFramework/Modules/lib/core/tools/Convert-IcingaEndpointsToIP.psm1": {
        "wxs_id": "c3bdf3ea-e5e5-4c2f-978f-beba5bd53ce2"
    },
    "files/MonitoringIcingaPsFramework/Modules/lib/core/tools/ConvertTo-IcingaIPv6BinaryString.psm1": {
        "wxs_id": "95b01a2e-5eb2-413c-b1c4-6267b75a79f9"
    },
    "files/MonitoringIcingaPsFramework/Modules/lib/core/tools/Remove-IcingaHashtableItem.psm1": {
        "wxs_id": "e537a0ef-642a-443d-969f-db38d90d194e"
    },
    "files/MonitoringIcingaPsFramework/Modules/lib/core/tools/New-IcingaTemporaryFile.psm1": {
        "wxs_id": "80aab287-fd03-4399-83b5-418f78af136d"
    },
    "files/MonitoringIcingaPsFramework/Modules/lib/core/tools/Format-IcingaPerfDataValue.psm1": {
        "wxs_id": "91c27fbf-1bd0-4462-9206-199a3a6ea63e"
    },
    "files/MonitoringIcingaPsFramework/Modules/lib/core/tools/Format-IcingaDigitCount.psm1": {
        "wxs_id": "9dd1df8a-b5e3-48c2-aab7-2eecc69951ba"
    },
    "files/MonitoringIcingaPsFramework/Modules/lib/core/tools/Get-IcingaValue.psm1": {
        "wxs_id": "bbd12eed-640e-45f4-b6df-d0e95ea7e193"
    },
    "files/MonitoringIcingaPsFramework/Modules/lib/core/tools/ConvertFrom-TimeSpan.psm1": {
        "wxs_id": "b8820326-f52b-4ff2-8b0d-32b53fc40194"
    },
    "files/MonitoringIcingaPsFramework/Modules/lib/core/tools/Start-IcingaProcess.psm1": {
        "wxs_id": "7b73a611-c1da-4da5-a0c7-b1748393122b"
    },
    "files/MonitoringIcingaPsFramework/Modules/lib/core/tools/Get-IcingaUserSID.psm1": {
        "wxs_id": "420caf94-54fc-4969-950d-1c29d598a16b"
    },
    "files/MonitoringIcingaPsFramework/Modules/lib/core/tools/Set-NumericNegative.psm1": {
        "wxs_id": "cfb05529-011c-4662-b07d-588a2eb008a8"
    },
    "files/MonitoringIcingaPsFramework/Modules/lib/core/tools/Join-WebPath.psm1": {
        "wxs_id": "8015a7f5-0d4d-45d0-9979-9dc73b4fb466"
    },
    "files/MonitoringIcingaPsFramework/Modules/lib/core/tools/Pop-IcingaArrayListItem.psm1": {
        "wxs_id": "43fa4c7e-8c82-4e2d-9480-445e6c23b268"
    },
    "files/MonitoringIcingaPsFramework/Modules/lib/core/tools/Convert-Bytes.psm1": {
        "wxs_id": "de8a52a3-f8fc-4253-8264-31d9cedb31d1"
    },
    "files/MonitoringIcingaPsFramework/Modules/lib/core/icingaagent/getters": {
        "wxs_id": "24c0be8d-214c-4745-b59d-b235d150716e"
    },
    "files/MonitoringIcingaPsFramework/Modules/lib/core/icingaagent/setters": {
        "wxs_id": "1bdbe6a2-cc51-4658-aa48-6286d8d22163"
    },
    "files/MonitoringIcingaPsFramework/Modules/lib/core/icingaagent/misc": {
        "wxs_id": "d0a9b42a-f64a-45ac-bef4-ab27e27ec9f7"
    },
    "files/MonitoringIcingaPsFramework/Modules/lib/core/icingaagent/writers": {
        "wxs_id": "3d34fe21-2716-4ebb-ba20-9ba6250f2d58"
    },
    "files/MonitoringIcingaPsFramework/Modules/lib/core/icingaagent/firewall": {
        "wxs_id": "7f1b7ba2-1264-4106-8e48-8fb1b108baad"
    },
    "files/MonitoringIcingaPsFramework/Modules/lib/core/icingaagent/installer": {
        "wxs_id": "22f67ed2-8878-4fda-a260-f0ea284ffd37"
    },
    "files/MonitoringIcingaPsFramework/Modules/lib/core/icingaagent/tests": {
        "wxs_id": "106e06a1-5a0b-44ac-b5e9-d340d31199a9"
    },
    "files/MonitoringIcingaPsFramework/Modules/lib/core/icingaagent/readers": {
        "wxs_id": "a2f0e2fd-33c0-42bf-bd1c-3be9ee60238e"
    },
    "files/MonitoringIcingaPsFramework/Modules/lib/core/icingaagent/finders": {
        "wxs_id": "9fd101e1-91e4-4cd0-87a0-db1165ccadec"
    },
    "files/MonitoringIcingaPsFramework/Modules/lib/core/icingaagent/getters/Get-IcingaAgentFeatures.psm1": {
        "wxs_id": "adc6442e-a5b6-44be-ad4f-9e5898fe336a"
    },
    "files/MonitoringIcingaPsFramework/Modules/lib/core/icingaagent/getters/Get-IcingaAgentInstallerAnswerInput.psm1": {
        "wxs_id": "f498831e-249d-448f-9c8f-533bf42ad5e7"
    },
    "files/MonitoringIcingaPsFramework/Modules/lib/core/icingaagent/getters/Get-IcingaNetbiosName.psm1": {
        "wxs_id": "189af5bf-e0db-4a45-a820-c3ae70fe1959"
    },
    "files/MonitoringIcingaPsFramework/Modules/lib/core/icingaagent/getters/Get-IcingaAgentHostCertificate.psm1": {
        "wxs_id": "8db24122-eede-4ca1-aff9-d8fbc55ccdeb"
    },
    "files/MonitoringIcingaPsFramework/Modules/lib/core/icingaagent/getters/Get-IcingaAgentConfigDirectory.psm1": {
        "wxs_id": "07ec862b-ecd8-4c46-b757-86a749342fc1"
    },
    "files/MonitoringIcingaPsFramework/Modules/lib/core/icingaagent/getters/Get-IcingaAgentObjectList.psm1": {
        "wxs_id": "4cbcd893-8aa0-466d-91dd-e6d0f2745832"
    },
    "files/MonitoringIcingaPsFramework/Modules/lib/core/icingaagent/getters/Get-IcingaAgentLogDirectory.psm1": {
        "wxs_id": "e659eb01-7448-4354-9836-e0aada814ab5"
    },
    "files/MonitoringIcingaPsFramework/Modules/lib/core/icingaagent/getters/Get-IcingaAgentBinary.psm1": {
        "wxs_id": "5c6a7f98-3d1a-42bf-845f-9d5c92afe897"
    },
    "files/MonitoringIcingaPsFramework/Modules/lib/core/icingaagent/getters/Get-IcingaServiceUser.psm1": {
        "wxs_id": "d04968dc-71da-468e-8ba9-ecbf82efa5fe"
    },
    "files/MonitoringIcingaPsFramework/Modules/lib/core/icingaagent/getters/Get-IcingaAgentServicePermission.psm1": {
        "wxs_id": "d46fcff1-fc35-4e1a-a299-55b743a7ab2c"
    },
    "files/MonitoringIcingaPsFramework/Modules/lib/core/icingaagent/getters/Get-IcingaAgentRootDirectory.psm1": {
        "wxs_id": "c01eaab6-0491-4365-adf1-e99572c71f4c"
    },
    "files/MonitoringIcingaPsFramework/Modules/lib/core/icingaagent/getters/Get-IcingaAgentInstallation.psm1": {
        "wxs_id": "6ef25305-3109-4751-b6d8-436d043c7b66"
    },
    "files/MonitoringIcingaPsFramework/Modules/lib/core/icingaagent/getters/Get-IcingaAgentVersion.psm1": {
        "wxs_id": "527572f5-8ae6-4db8-a7a1-a34730d5fc5a"
    },
    "files/MonitoringIcingaPsFramework/Modules/lib/core/icingaagent/getters/Get-IcingaHostname.psm1": {
        "wxs_id": "efec1917-da77-409f-8865-07a0c9c7b526"
    },
    "files/MonitoringIcingaPsFramework/Modules/lib/core/icingaagent/getters/Get-IcingaAgentArchitecture.psm1": {
        "wxs_id": "213e0d77-d59f-41d5-8e76-62d22581e31d"
    },
    "files/MonitoringIcingaPsFramework/Modules/lib/core/icingaagent/getters/Get-IcingaAgentMSIPackage.psm1": {
        "wxs_id": "63f0ea0e-ed08-49f0-b400-fb6fde41cfd8"
    },
    "files/MonitoringIcingaPsFramework/Modules/lib/core/icingaagent/setters/Set-IcingaAgentServiceUser.psm1": {
        "wxs_id": "868dd1ae-68d0-4249-9d51-741566a4a422"
    },
    "files/MonitoringIcingaPsFramework/Modules/lib/core/icingaagent/setters/Set-IcingaAcl.psm1": {
        "wxs_id": "3a796097-1692-41b0-a8f2-1c89e165606b"
    },
    "files/MonitoringIcingaPsFramework/Modules/lib/core/icingaagent/setters/Set-IcingaAgentNodeName.psm1": {
        "wxs_id": "62996570-c67a-47ff-becf-664e5c4e220d"
    },
    "files/MonitoringIcingaPsFramework/Modules/lib/core/icingaagent/setters/Set-IcingaAgentServicePermission.psm1": {
        "wxs_id": "e4f1369e-f294-4124-9cc9-85e14a742500"
    },
    "files/MonitoringIcingaPsFramework/Modules/lib/core/icingaagent/setters/Set-IcingaUserPermissions.psm1": {
        "wxs_id": "5cdeebaa-6dc2-4c0b-aa28-6706541f63f2"
    },
    "files/MonitoringIcingaPsFramework/Modules/lib/core/icingaagent/misc/Compare-IcingaVersions.psm1": {
        "wxs_id": "adf77a97-47a0-4c68-b997-3e34a866a926"
    },
    "files/MonitoringIcingaPsFramework/Modules/lib/core/icingaagent/misc/Reset-IcingaAgentConfigFile.psm1": {
        "wxs_id": "0bf80040-d3c1-4f3c-b75e-f42a1b9a75e5"
    },
    "files/MonitoringIcingaPsFramework/Modules/lib/core/icingaagent/misc/Disable-IcingaAgentFeature.psm1": {
        "wxs_id": "e6575ed2-94f5-4a5e-b0bd-f9523174b36c"
    },
    "files/MonitoringIcingaPsFramework/Modules/lib/core/icingaagent/misc/Start-IcingaAgentDirectorWizard.psm1": {
        "wxs_id": "18ceedf9-e8dc-42f4-850a-69422f9c5208"
    },
    "files/MonitoringIcingaPsFramework/Modules/lib/core/icingaagent/misc/Show-IcingaAgentObjects.psm1": {
        "wxs_id": "063795a8-c74c-41d7-92d5-e7e3b1b2d451"
    },
    "files/MonitoringIcingaPsFramework/Modules/lib/core/icingaagent/misc/Split-IcingaVersion.psm1": {
        "wxs_id": "e886be81-05ef-4ed9-b41c-8b1a8ee401b6"
    },
    "files/MonitoringIcingaPsFramework/Modules/lib/core/icingaagent/misc/Start-IcingaAgentInstallWizard.psm1": {
        "wxs_id": "df4e0460-8115-4136-a0a5-e4897e658708"
    },
    "files/MonitoringIcingaPsFramework/Modules/lib/core/icingaagent/misc/Move-IcingaAgentDefaultConfig.psm1": {
        "wxs_id": "5f48b09c-f6dd-4580-9106-924503926f9e"
    },
    "files/MonitoringIcingaPsFramework/Modules/lib/core/icingaagent/misc/Enable-IcingaAgentFeature.psm1": {
        "wxs_id": "77626cd7-d41a-4679-9059-9905b6efd962"
    },
    "files/MonitoringIcingaPsFramework/Modules/lib/core/icingaagent/misc/Convert-IcingaDirectorSelfServiceArguments.psm1": {
        "wxs_id": "57d050e8-1ca4-4801-8e2a-2c8826e2eb0e"
    },
    "files/MonitoringIcingaPsFramework/Modules/lib/core/icingaagent/writers/Write-IcingaAgentZonesConfig.psm1": {
        "wxs_id": "2b2e7098-d47e-451f-b045-99512270c7bb"
    },
    "files/MonitoringIcingaPsFramework/Modules/lib/core/icingaagent/writers/Write-IcingaTestOutput.psm1": {
        "wxs_id": "733dfcf8-18a6-4e90-a04b-2104c72b6668"
    },
    "files/MonitoringIcingaPsFramework/Modules/lib/core/icingaagent/writers/Write-IcingaAgentApiConfig.psm1": {
        "wxs_id": "ff9a2bce-4f53-49b6-b156-46fafe5e15ea"
    },
    "files/MonitoringIcingaPsFramework/Modules/lib/core/icingaagent/writers/Write-IcingaAgentObjectList.psm1": {
        "wxs_id": "b5790c81-7623-4b5e-b3e3-28aed82b7b78"
    },
    "files/MonitoringIcingaPsFramework/Modules/lib/core/icingaagent/firewall/Disable-IcingaFirewall.psm1": {
        "wxs_id": "b892ec4d-a9b5-4f51-8e33-6c366ef7fefc"
    },
    "files/MonitoringIcingaPsFramework/Modules/lib/core/icingaagent/firewall/Get-IcingaFirewallConfig.psm1": {
        "wxs_id": "9d284e98-081e-42a9-8f21-6eac67c825f8"
    },
    "files/MonitoringIcingaPsFramework/Modules/lib/core/icingaagent/firewall/Enable-IcingaFirewall.psm1": {
        "wxs_id": "eafc25ba-f167-4b20-a449-accf77d6daaa"
    },
    "files/MonitoringIcingaPsFramework/Modules/lib/core/icingaagent/installer/Uninstall-IcingaAgent.psm1": {
        "wxs_id": "81dcec74-0f05-4050-a27a-84955dfc9ced"
    },
    "files/MonitoringIcingaPsFramework/Modules/lib/core/icingaagent/installer/Install-IcingaAgent.psm1": {
        "wxs_id": "2102723a-d003-4738-b6c0-bf2b295dbe76"
    },
    "files/MonitoringIcingaPsFramework/Modules/lib/core/icingaagent/installer/Install-IcingaAgentBaseFeatures.psm1": {
        "wxs_id": "09d786e5-ca81-4841-acf3-07bbb53df161"
    },
    "files/MonitoringIcingaPsFramework/Modules/lib/core/icingaagent/installer/Install-IcingaAgentCertificates.psm1": {
        "wxs_id": "1a4c521e-6610-403a-bc1d-88464b6a44e4"
    },
    "files/MonitoringIcingaPsFramework/Modules/lib/core/icingaagent/tests/Test-IcingaAgentNETFrameworkDependency.psm1": {
        "wxs_id": "2339c7db-3387-4b1d-9b10-a939d0e4dc2f"
    },
    "files/MonitoringIcingaPsFramework/Modules/lib/core/icingaagent/tests/Test-IcingaAcl.psm1": {
        "wxs_id": "a0b9fff1-eaeb-4f2c-b83a-fb23e741a5d2"
    },
    "files/MonitoringIcingaPsFramework/Modules/lib/core/icingaagent/tests/Test-IcingaAgentFeatureEnabled.psm1": {
        "wxs_id": "683ce9a2-cc1b-428f-b77f-0d25ad3baf1c"
    },
    "files/MonitoringIcingaPsFramework/Modules/lib/core/icingaagent/tests/Test-IcingaAgent.psm1": {
        "wxs_id": "414cc1a9-7236-48bd-bb5e-4a7289167a9c"
    },
    "files/MonitoringIcingaPsFramework/Modules/lib/core/icingaagent/tests/Test-IcingaAgentConfig.psm1": {
        "wxs_id": "6ad23135-4ea8-4f06-9c53-e7853c7e4b68"
    },
    "files/MonitoringIcingaPsFramework/Modules/lib/core/icingaagent/tests/Test-IcingaAgentServicePermission.psm1": {
        "wxs_id": "4e27bf8b-df6a-41ca-81b1-6e31bd8237c4"
    },
    "files/MonitoringIcingaPsFramework/Modules/lib/core/icingaagent/readers/Read-IcingaAgentDebugLogFile.psm1": {
        "wxs_id": "7c3642e2-d72e-4b5a-b704-92707d8dd5d7"
    },
    "files/MonitoringIcingaPsFramework/Modules/lib/core/icingaagent/readers/Read-IcingaAgentLogFile.psm1": {
        "wxs_id": "8252ee54-ea2f-492d-aa3e-44c621ac43d8"
    },
    "files/MonitoringIcingaPsFramework/Modules/lib/core/icingaagent/finders/Find-IcingaAgentObjects.psm1": {
        "wxs_id": "b0c57ce7-c53f-4acb-a746-495288b5d246"
    },
    "files/MonitoringIcingaPsFramework/Modules/lib/core/cache/Set-IcingaCacheData.psm1": {
        "wxs_id": "c51eb29c-62ae-4b08-b19d-91dd144a9002"
    },
    "files/MonitoringIcingaPsFramework/Modules/lib/core/cache/Get-IcingaCacheData.psm1": {
        "wxs_id": "d7138bb3-6a2b-4136-bd59-bd9867ad682b"
    },
    "files/MonitoringIcingaPsFramework/Modules/lib/core/thread/Test-IcingaThread.psm1": {
        "wxs_id": "70c171cb-a7cb-4930-b544-969889de0987"
    },
    "files/MonitoringIcingaPsFramework/Modules/lib/core/thread/Stop-IcingaThread.psm1": {
        "wxs_id": "8942fb8e-1f20-4e61-8987-0b107ea0a875"
    },
    "files/MonitoringIcingaPsFramework/Modules/lib/core/thread/New-IcingaThreadInstance.psm1": {
        "wxs_id": "bd965809-93df-49ee-b740-2bab36d3006d"
    },
    "files/MonitoringIcingaPsFramework/Modules/lib/core/thread/New-IcingaThreadPool.psm1": {
        "wxs_id": "83dd1ad9-a8c3-4144-a751-0b69516de78e"
    },
    "files/MonitoringIcingaPsFramework/Modules/lib/core/thread/Remove-IcingaThread.psm1": {
        "wxs_id": "05043be1-8144-458a-9042-1b79f1220129"
    },
    "files/MonitoringIcingaPsFramework/Modules/lib/core/thread/Start-IcingaThread.psm1": {
        "wxs_id": "cf73ed63-7e47-479d-bf94-7df276511927"
    },
    "files/MonitoringIcingaPsFramework/Modules/lib/core/thread/Restart-IcingaThread.psm1": {
        "wxs_id": "627c070d-329a-4139-875f-5c3b610763ea"
    },
    "files/MonitoringIcingaPsFramework/Modules/lib/core/thread/New-IcingaThreadHash.psm1": {
        "wxs_id": "9404bcf4-295e-4d03-afbe-4da341c22841"
    },
    "files/MonitoringIcingaPsFramework/Modules/lib/core/logging/Icinga_EventLog_Enums.psm1": {
        "wxs_id": "23f8b358-93a6-47d9-86f3-720e46cf9229"
    },
    "files/MonitoringIcingaPsFramework/Modules/lib/core/logging/Write-IcingaConsoleNotice.psm1": {
        "wxs_id": "851058aa-701e-4bd8-8df9-0b30f8e025d9"
    },
    "files/MonitoringIcingaPsFramework/Modules/lib/core/logging/Register-IcingaEventLog.psm1": {
        "wxs_id": "f6ea9cb3-f307-44d7-a05d-2f1f623e4c47"
    },
    "files/MonitoringIcingaPsFramework/Modules/lib/core/logging/Write-IcingaDebugMessage.psm1": {
        "wxs_id": "c1e23a52-9950-4016-8175-b8279d6e796b"
    },
    "files/MonitoringIcingaPsFramework/Modules/lib/core/logging/Write-IcingaConsolePlain.psm1": {
        "wxs_id": "400e7425-d3a9-43c0-a1b7-13aea0273ec0"
    },
    "files/MonitoringIcingaPsFramework/Modules/lib/core/logging/Write-IcingaEventMessage.psm1": {
        "wxs_id": "08d75aee-b255-4554-b497-60b52ea5dcbe"
    },
    "files/MonitoringIcingaPsFramework/Modules/lib/core/logging/Write-IcingaConsoleDebug.psm1": {
        "wxs_id": "8827a203-9783-4dc0-b0b2-bafb9cd1833a"
    },
    "files/MonitoringIcingaPsFramework/Modules/lib/core/logging/Write-IcingaConsoleError.psm1": {
        "wxs_id": "e3e142ee-3d59-43df-919f-7f3796662b6e"
    },
    "files/MonitoringIcingaPsFramework/Modules/lib/core/logging/Write-IcingaConsoleWarning.psm1": {
        "wxs_id": "d8c2660c-0f39-4dd7-9418-aa1ed6ce44c6"
    },
    "files/MonitoringIcingaPsFramework/Modules/lib/core/logging/Write-IcingaConsoleOutput.psm1": {
        "wxs_id": "f304b047-b63c-43c5-a9bc-a226b56149d9"
    },
    "files/MonitoringIcingaPsFramework/Modules/lib/core/logging/Write-IcingaErrorMessage.psm1": {
        "wxs_id": "f3e83ef4-121c-49be-9f91-3c12260d6db0"
    },
    "files/MonitoringIcingaPsFramework/Modules/lib/web/Convert-Base64ToCredentials.psm1": {
        "wxs_id": "81e20fda-a344-484d-8a47-c10b9393d522"
    },
    "files/MonitoringIcingaPsFramework/Modules/lib/web/Close-IcingaTCPSocket.psm1": {
        "wxs_id": "05ed3374-e3a7-4ab6-928b-ca1425aed1c2"
    },
    "files/MonitoringIcingaPsFramework/Modules/lib/web/New-IcingaTCPClient.psm1": {
        "wxs_id": "2ce5c1f4-1efc-41c8-bcc0-343f94a719de"
    },
    "files/MonitoringIcingaPsFramework/Modules/lib/web/Send-IcingaWebAuthMessage.psm1": {
        "wxs_id": "7b6f75cf-bae0-4136-8e1e-fa4be904e1a1"
    },
    "files/MonitoringIcingaPsFramework/Modules/lib/web/Close-IcingaTCPConnection.psm1": {
        "wxs_id": "30463668-5120-4b76-b4b1-d865f81d9f68"
    },
    "files/MonitoringIcingaPsFramework/Modules/lib/web/Open-IcingaTCPClientConnection.psm1": {
        "wxs_id": "c7c078d7-4b9b-43c2-b97e-a4d54f0f4ae1"
    },
    "files/MonitoringIcingaPsFramework/Modules/lib/web/Test-IcingaRESTCredentials.psm1": {
        "wxs_id": "a93e1b47-6168-4232-8e54-2350f80c4dd2"
    },
    "files/MonitoringIcingaPsFramework/Modules/lib/web/Send-IcingaTCPClientMessage.psm1": {
        "wxs_id": "754df175-372c-42d0-a0ae-fdd4498b1e5d"
    },
    "files/MonitoringIcingaPsFramework/Modules/lib/web/Read-IcingaRESTMessage.psm1": {
        "wxs_id": "2734439c-9e46-4cb5-943e-0b14a20db1b1"
    },
    "files/MonitoringIcingaPsFramework/Modules/lib/web/New-IcingaTCPClientRESTMessage.psm1": {
        "wxs_id": "f6cbb8ab-a9c0-41e9-a0f6-223d2191501a"
    },
    "files/MonitoringIcingaPsFramework/Modules/lib/web/Read-IcingaTCPStream.psm1": {
        "wxs_id": "7698a09d-8a34-41e1-a809-4588eea5c62b"
    },
    "files/MonitoringIcingaPsFramework/Modules/lib/web/New-IcingaTCPSocket.psm1": {
        "wxs_id": "58afac82-5adb-479d-807d-a2fa807d5b37"
    },
    "files/MonitoringIcingaPsFramework/Modules/lib/web/Disable-IcingaUntrustedCertificateValidation.psm1": {
        "wxs_id": "abfbb9c9-753d-4f45-906b-1ed4c906f3e6"
    },
    "files/MonitoringIcingaPsFramework/Modules/lib/web/Icinga_HTTPResponse_Enums.psm1": {
        "wxs_id": "c4754de7-8605-4b48-90b0-cfc51c1af802"
    },
    "files/MonitoringIcingaPsFramework/Modules/lib/web/Enable-IcingaUntrustedCertificateValidation.psm1": {
        "wxs_id": "0f1790bf-6b16-4c0d-935e-807391ebabfc"
    },
    "files/MonitoringIcingaPsFramework/Modules/lib/web/Get-IcingaRESTPathElement.psm1": {
        "wxs_id": "77ebf0f5-879b-4be0-add2-60670e0ef878"
    },
    "files/MonitoringIcingaPsFramework/Modules/lib/web/ConvertTo-IcingaX509Certificate.psm1": {
        "wxs_id": "6ccd7ab3-bb0e-4a4e-8269-97ef941cda06"
    },
    "files/MonitoringIcingaPsFramework/Modules/lib/web/Get-IcingaRESTHeaderValue.psm1": {
        "wxs_id": "0979e7b4-dcbd-469a-b663-86a21769c013"
    },
    "files/MonitoringIcingaPsFramework/Modules/lib/web/Get-IcingaTCPClientRemoteEndpoint.psm1": {
        "wxs_id": "ce149f73-01ec-4fc9-b99c-1f81f0db58f6"
    },
    "files/MonitoringIcingaPsFramework/Modules/lib/web/Set-IcingaTLSVersion.psm1": {
        "wxs_id": "403ecce9-cdef-4bbb-bf25-536444416a4f"
    },
    "files/MonitoringIcingaPsFramework/Modules/lib/web/New-IcingaSSLStream.psm1": {
        "wxs_id": "85a9ce6c-45cc-47c4-bf24-41785eefad66"
    },
    "files/MonitoringIcingaPsFramework/Modules/lib/web/Get-IcingaSSLCertForSocket.psm1": {
        "wxs_id": "1c6d5859-2c0c-48c6-aad8-84d9299b2b32"
    },
    "files/MonitoringIcingaPsFramework/Modules/lib/help/help": {
        "wxs_id": "07b7b79d-dad4-4489-9b25-2a12489326a1"
    },
    "files/MonitoringIcingaPsFramework/Modules/lib/help/help/Get-IcingaHelpThresholds.psm1": {
        "wxs_id": "dffae76c-9101-4309-b383-65e14f1ec42f"
    },
    "files/MonitoringIcingaPsFramework/Modules/lib/apis/Register-IcingaDirectorSelfServiceHost.psm1": {
        "wxs_id": "f9fc375b-ee17-40b3-8c8c-24a204e74163"
    },
    "files/MonitoringIcingaPsFramework/Modules/lib/apis/Get-IcingaDirectorSelfServiceTicket.psm1": {
        "wxs_id": "053d6381-f55c-4c26-a352-b84d6a8a2ab5"
    },
    "files/MonitoringIcingaPsFramework/Modules/lib/apis/Get-IcingaDirectorSelfServiceConfig.psm1": {
        "wxs_id": "602fc5d3-2c80-49e8-ae2b-83a1f5102650"
    },
    "files/MonitoringIcingaPsFramework/Modules/lib/daemons/ServiceCheckDaemon": {
        "wxs_id": "3ea531c6-580c-41b0-a551-66d0b13e4dd4"
    },
    "files/MonitoringIcingaPsFramework/Modules/lib/daemons/ServiceCheckDaemon/Set-IcingaRegisteredServiceCheckConfig.psm1": {
        "wxs_id": "37a55031-208a-4775-aa24-6cf00431faf4"
    },
    "files/MonitoringIcingaPsFramework/Modules/lib/daemons/ServiceCheckDaemon/Get-IcingaRegisteredServiceChecks.psm1": {
        "wxs_id": "c11e8e62-6649-4772-87af-d16eb4ef28c2"
    },
    "files/MonitoringIcingaPsFramework/Modules/lib/daemons/ServiceCheckDaemon/Show-IcingaRegisteredServiceChecks.psm1": {
        "wxs_id": "87e525e7-8250-4f40-be12-fc319ba384ed"
    },
    "files/MonitoringIcingaPsFramework/Modules/lib/daemons/ServiceCheckDaemon/Register-IcingaServiceCheck.psm1": {
        "wxs_id": "0d7cf36e-ce15-4d20-9d62-74c430ccb142"
    },
    "files/MonitoringIcingaPsFramework/Modules/lib/daemons/ServiceCheckDaemon/Start-IcingaServiceCheckDaemon.psm1": {
        "wxs_id": "2699cfab-6933-4593-8bbc-c08b1578fc84"
    },
    "files/MonitoringIcingaPsFramework/Modules/lib/daemons/ServiceCheckDaemon/Unregister-IcingaServiceCheck.psm1": {
        "wxs_id": "8e946655-caeb-42ca-b271-1232d28a6e45"
    },
    "files/MonitoringIcingaPsFramework/Modules/lib/core/tools/Compare-IcingaUnixTimeWithDateTime.psm1": {
        "wxs_id": "a50dff05-e189-4ae4-b3ea-5929694eed59"
    }
}